<svg width="217" height="217" viewBox="0 0 217 217" fill="none" xmlns="http://www.w3.org/2000/svg">
<g filter="url(#filter0_d)">
<circle cx="98.5" cy="93.5" r="78.5" fill="#F7F7F7"/>
</g>
<g filter="url(#filter1_ii)">
<circle cx="98.5" cy="93.5" r="73.5" fill="#F7F7F7"/>
</g>
<path d="M103.571 86.3614H94.1806C92.6195 86.3614 91.3636 85.1053 91.3636 83.544V63.8223H81.0699C78.9806 63.8223 77.936 61.2983 79.4149 59.8192L97.2676 41.9522C98.1479 41.0718 99.5916 41.0718 100.472 41.9522L118.336 59.8192C119.815 61.2983 118.771 63.8223 116.681 63.8223H106.388V83.544C106.388 85.1053 105.132 86.3614 103.571 86.3614ZM128.923 85.4223V98.5702C128.923 100.131 127.668 101.388 126.106 101.388H71.6447C70.0837 101.388 68.8278 100.131 68.8278 98.5702V85.4223C68.8278 83.861 70.0837 82.6049 71.6447 82.6049H87.6077V83.544C87.6077 87.1714 90.5538 90.118 94.1806 90.118H103.571C107.197 90.118 110.144 87.1714 110.144 83.544V82.6049H126.106C127.668 82.6049 128.923 83.861 128.923 85.4223ZM114.369 95.7528C114.369 94.4615 113.313 93.4049 112.022 93.4049C110.73 93.4049 109.674 94.4615 109.674 95.7528C109.674 97.0441 110.73 98.1006 112.022 98.1006C113.313 98.1006 114.369 97.0441 114.369 95.7528ZM121.881 95.7528C121.881 94.4615 120.825 93.4049 119.533 93.4049C118.242 93.4049 117.186 94.4615 117.186 95.7528C117.186 97.0441 118.242 98.1006 119.533 98.1006C120.825 98.1006 121.881 97.0441 121.881 95.7528Z" fill="#7E7E7E"/>
<path d="M60.431 117.307H63.499V126.407H60.431V117.307ZM73.1009 126.407L73.0749 122.26L71.0989 125.588H69.7469L67.7709 122.403V126.407H64.9759V117.307H67.4979L70.4619 122.156L73.3479 117.307H75.8699L75.8959 126.407H73.1009ZM81.7602 117.307C82.6009 117.307 83.3332 117.445 83.9572 117.723C84.5812 118 85.0622 118.399 85.4002 118.919C85.7382 119.439 85.9072 120.045 85.9072 120.739C85.9072 121.432 85.7382 122.039 85.4002 122.559C85.0622 123.079 84.5812 123.477 83.9572 123.755C83.3332 124.032 82.6009 124.171 81.7602 124.171H80.4472V126.407H77.3792V117.307H81.7602ZM81.5652 121.805C81.9812 121.805 82.2932 121.714 82.5012 121.532C82.7092 121.341 82.8132 121.077 82.8132 120.739C82.8132 120.401 82.7092 120.141 82.5012 119.959C82.2932 119.768 81.9812 119.673 81.5652 119.673H80.4472V121.805H81.5652ZM91.8113 126.615C90.832 126.615 89.9523 126.411 89.1723 126.004C88.3923 125.596 87.7813 125.033 87.3393 124.314C86.8973 123.586 86.6763 122.767 86.6763 121.857C86.6763 120.947 86.8973 120.132 87.3393 119.413C87.7813 118.685 88.3923 118.117 89.1723 117.71C89.9523 117.302 90.832 117.099 91.8113 117.099C92.7907 117.099 93.6703 117.302 94.4503 117.71C95.2303 118.117 95.8413 118.685 96.2833 119.413C96.7253 120.132 96.9463 120.947 96.9463 121.857C96.9463 122.767 96.7253 123.586 96.2833 124.314C95.8413 125.033 95.2303 125.596 94.4503 126.004C93.6703 126.411 92.7907 126.615 91.8113 126.615ZM91.8113 124.132C92.1927 124.132 92.535 124.041 92.8383 123.859C93.1503 123.668 93.3973 123.404 93.5793 123.066C93.7613 122.719 93.8523 122.316 93.8523 121.857C93.8523 121.397 93.7613 120.999 93.5793 120.661C93.3973 120.314 93.1503 120.05 92.8383 119.868C92.535 119.677 92.1927 119.582 91.8113 119.582C91.43 119.582 91.0833 119.677 90.7713 119.868C90.468 120.05 90.2253 120.314 90.0433 120.661C89.8613 120.999 89.7703 121.397 89.7703 121.857C89.7703 122.316 89.8613 122.719 90.0433 123.066C90.2253 123.404 90.468 123.668 90.7713 123.859C91.0833 124.041 91.43 124.132 91.8113 124.132ZM101.96 124.119H101.128V126.407H98.0599V117.307H102.441C103.282 117.307 104.014 117.445 104.638 117.723C105.262 118 105.743 118.399 106.081 118.919C106.419 119.439 106.588 120.045 106.588 120.739C106.588 121.389 106.441 121.956 106.146 122.442C105.851 122.927 105.427 123.313 104.872 123.599L106.783 126.407H103.507L101.96 124.119ZM103.494 120.739C103.494 120.401 103.39 120.141 103.182 119.959C102.974 119.768 102.662 119.673 102.246 119.673H101.128V121.805H102.246C102.662 121.805 102.974 121.714 103.182 121.532C103.39 121.341 103.494 121.077 103.494 120.739ZM109.595 119.686H106.93V117.307H115.328V119.686H112.663V126.407H109.595V119.686ZM123.691 124.093V126.407H116.125V117.307H123.522V119.621H119.141V120.687H122.989V122.897H119.141V124.093H123.691ZM128.772 124.119H127.94V126.407H124.872V117.307H129.253C130.094 117.307 130.826 117.445 131.45 117.723C132.074 118 132.555 118.399 132.893 118.919C133.231 119.439 133.4 120.045 133.4 120.739C133.4 121.389 133.253 121.956 132.958 122.442C132.664 122.927 132.239 123.313 131.684 123.599L133.595 126.407H130.319L128.772 124.119ZM130.306 120.739C130.306 120.401 130.202 120.141 129.994 119.959C129.786 119.768 129.474 119.673 129.058 119.673H127.94V121.805H129.058C129.474 121.805 129.786 121.714 129.994 121.532C130.202 121.341 130.306 121.077 130.306 120.739ZM64.6376 141.599C63.3496 141.599 62.3456 141.251 61.6256 140.555C60.9056 139.859 60.5456 138.883 60.5456 137.627V133.007H63.3776V137.543C63.3776 138.159 63.4856 138.607 63.7016 138.887C63.9256 139.167 64.2456 139.307 64.6616 139.307C65.0776 139.307 65.3936 139.167 65.6096 138.887C65.8336 138.607 65.9456 138.159 65.9456 137.543V133.007H68.7296V137.627C68.7296 138.883 68.3696 139.859 67.6496 140.555C66.9296 141.251 65.9256 141.599 64.6376 141.599ZM78.3078 133.007V141.407H75.9798L72.7878 137.591V141.407H70.0278V133.007H72.3558L75.5478 136.823V133.007H78.3078ZM86.6563 139.271V141.407H79.6723V133.007H86.5003V135.143H82.4563V136.127H86.0083V138.167H82.4563V139.271H86.6563ZM95.3882 133.007C96.1642 133.007 96.8402 133.135 97.4162 133.391C97.9922 133.647 98.4362 134.015 98.7482 134.495C99.0602 134.975 99.2162 135.535 99.2162 136.175C99.2162 136.815 99.0602 137.375 98.7482 137.855C98.4362 138.335 97.9922 138.703 97.4162 138.959C96.8402 139.215 96.1642 139.343 95.3882 139.343H94.1762V141.407H91.3442V133.007H95.3882ZM95.2082 137.159C95.5922 137.159 95.8802 137.075 96.0722 136.907C96.2642 136.731 96.3602 136.487 96.3602 136.175C96.3602 135.863 96.2642 135.623 96.0722 135.455C95.8802 135.279 95.5922 135.191 95.2082 135.191H94.1762V137.159H95.2082ZM108.425 133.007V141.407H105.593V138.311H102.977V141.407H100.145V133.007H102.977V135.983H105.593V133.007H108.425ZM114.193 141.599C113.289 141.599 112.477 141.411 111.757 141.035C111.037 140.659 110.473 140.139 110.065 139.475C109.657 138.803 109.453 138.047 109.453 137.207C109.453 136.367 109.657 135.615 110.065 134.951C110.473 134.279 111.037 133.755 111.757 133.379C112.477 133.003 113.289 132.815 114.193 132.815C115.097 132.815 115.909 133.003 116.629 133.379C117.349 133.755 117.913 134.279 118.321 134.951C118.729 135.615 118.934 136.367 118.934 137.207C118.934 138.047 118.729 138.803 118.321 139.475C117.913 140.139 117.349 140.659 116.629 141.035C115.909 141.411 115.097 141.599 114.193 141.599ZM114.193 139.307C114.545 139.307 114.861 139.223 115.141 139.055C115.429 138.879 115.657 138.635 115.825 138.323C115.993 138.003 116.077 137.631 116.077 137.207C116.077 136.783 115.993 136.415 115.825 136.103C115.657 135.783 115.429 135.539 115.141 135.371C114.861 135.195 114.545 135.107 114.193 135.107C113.841 135.107 113.521 135.195 113.233 135.371C112.953 135.539 112.729 135.783 112.561 136.103C112.393 136.415 112.309 136.783 112.309 137.207C112.309 137.631 112.393 138.003 112.561 138.323C112.729 138.635 112.953 138.879 113.233 139.055C113.521 139.223 113.841 139.307 114.193 139.307ZM121.668 135.203H119.208V133.007H126.96V135.203H124.5V141.407H121.668V135.203ZM131.983 141.599C131.079 141.599 130.267 141.411 129.547 141.035C128.827 140.659 128.263 140.139 127.855 139.475C127.447 138.803 127.243 138.047 127.243 137.207C127.243 136.367 127.447 135.615 127.855 134.951C128.263 134.279 128.827 133.755 129.547 133.379C130.267 133.003 131.079 132.815 131.983 132.815C132.887 132.815 133.699 133.003 134.419 133.379C135.139 133.755 135.703 134.279 136.111 134.951C136.519 135.615 136.723 136.367 136.723 137.207C136.723 138.047 136.519 138.803 136.111 139.475C135.703 140.139 135.139 140.659 134.419 141.035C133.699 141.411 132.887 141.599 131.983 141.599ZM131.983 139.307C132.335 139.307 132.651 139.223 132.931 139.055C133.219 138.879 133.447 138.635 133.615 138.323C133.783 138.003 133.867 137.631 133.867 137.207C133.867 136.783 133.783 136.415 133.615 136.103C133.447 135.783 133.219 135.539 132.931 135.371C132.651 135.195 132.335 135.107 131.983 135.107C131.631 135.107 131.311 135.195 131.023 135.371C130.743 135.539 130.519 135.783 130.351 136.103C130.183 136.415 130.099 136.783 130.099 137.207C130.099 137.631 130.183 138.003 130.351 138.323C130.519 138.635 130.743 138.879 131.023 139.055C131.311 139.223 131.631 139.307 131.983 139.307Z" fill="#7E7E7E"/>
<defs>
<filter id="filter0_d" x="0" y="0" width="217" height="217" filterUnits="userSpaceOnUse" color-interpolation-filters="sRGB">
<feFlood flood-opacity="0" result="BackgroundImageFix"/>
<feColorMatrix in="SourceAlpha" type="matrix" values="0 0 0 0 0 0 0 0 0 0 0 0 0 0 0 0 0 0 127 0"/>
<feOffset dx="10" dy="15"/>
<feGaussianBlur stdDeviation="15"/>
<feColorMatrix type="matrix" values="0 0 0 0 0 0 0 0 0 0 0 0 0 0 0 0 0 0 0.12 0"/>
<feBlend mode="normal" in2="BackgroundImageFix" result="effect1_dropShadow"/>
<feBlend mode="normal" in="SourceGraphic" in2="effect1_dropShadow" result="shape"/>
</filter>
<filter id="filter1_ii" x="24" y="19" width="151" height="150" filterUnits="userSpaceOnUse" color-interpolation-filters="sRGB">
<feFlood flood-opacity="0" result="BackgroundImageFix"/>
<feBlend mode="normal" in="SourceGraphic" in2="BackgroundImageFix" result="shape"/>
<feColorMatrix in="SourceAlpha" type="matrix" values="0 0 0 0 0 0 0 0 0 0 0 0 0 0 0 0 0 0 127 0" result="hardAlpha"/>
<feOffset dx="3" dy="2"/>
<feGaussianBlur stdDeviation="4"/>
<feComposite in2="hardAlpha" operator="arithmetic" k2="-1" k3="1"/>
<feColorMatrix type="matrix" values="0 0 0 0 0 0 0 0 0 0 0 0 0 0 0 0 0 0 0.15 0"/>
<feBlend mode="normal" in2="shape" result="effect1_innerShadow"/>
<feColorMatrix in="SourceAlpha" type="matrix" values="0 0 0 0 0 0 0 0 0 0 0 0 0 0 0 0 0 0 127 0" result="hardAlpha"/>
<feOffset dx="-1" dy="-1"/>
<feGaussianBlur stdDeviation="1"/>
<feComposite in2="hardAlpha" operator="arithmetic" k2="-1" k3="1"/>
<feColorMatrix type="matrix" values="0 0 0 0 1 0 0 0 0 1 0 0 0 0 1 0 0 0 1 0"/>
<feBlend mode="normal" in2="effect1_innerShadow" result="effect2_innerShadow"/>
</filter>
</defs>
</svg>
